…
Each row is a monthly summary of train routes, the number of routes is
pretty stable for 2015-2017, but more are added in 2018.

    small_trains %>% 
      count(year, month)

    ## # A tibble: 47 x 3
    ##     year month     n
    ##    <dbl> <dbl> <int>
    ##  1  2015     1   672
    ##  2  2015     2   672
    ##  3  2015     3   672
    ##  4  2015     4   672
    ##  5  2015     5   672
    ##  6  2015     6   672
    ##  7  2015     7   672
    ##  8  2015     8   672
    ##  9  2015     9   672
    ## 10  2015    10   672
    ## # … with 37 more rows

    full_trains %>% 
      count(year, month)

    ## # A tibble: 47 x 3
    ##     year month     n
    ##    <dbl> <dbl> <int>
    ##  1  2015     1   112
    ##  2  2015     2   112
    ##  3  2015     3   112
    ##  4  2015     4   112
    ##  5  2015     5   112
    ##  6  2015     6   112
    ##  7  2015     7   112
    ##  8  2015     8   112
    ##  9  2015     9   112
    ## 10  2015    10   112
    ## # … with 37 more rows
…
